11/20/2017 12:38:24 PM - [INFO] - Template: F3E892E6-2297-4447-A2C7-51A4AB162EEE was found and attempting to read.
11/20/2017 12:38:24 PM - [INFO] - Completed reading template F3E892E6-2297-4447-A2C7-51A4AB162EEE
11/20/2017 12:38:24 PM - [INFO] - Replacing params for template.
11/20/2017 12:38:24 PM - [INFO] - Replacing <name> with Javanie Campbell..
11/20/2017 12:38:24 PM - [INFO] - Completed replacing parameters.
11/20/2017 12:38:49 PM - [INFO] - Template: F3E892E6-2297-4447-A2C7-51A4AB162EEE was found and attempting to read.
11/20/2017 12:38:49 PM - [INFO] - Completed reading template F3E892E6-2297-4447-A2C7-51A4AB162EEE
11/20/2017 12:38:49 PM - [INFO] - Replacing params for template.
11/20/2017 12:38:49 PM - [INFO] - Replacing <name> with Javanie Campbell..
11/20/2017 12:38:49 PM - [INFO] - Completed replacing parameters.
11/20/2017 12:39:07 PM - [INFO] - Template: F3E892E6-2297-4447-A2C7-51A4AB162EEE was found and attempting to read.
11/20/2017 12:39:07 PM - [INFO] - Completed reading template F3E892E6-2297-4447-A2C7-51A4AB162EEE
11/20/2017 12:39:07 PM - [INFO] - Replacing params for template.
11/20/2017 12:39:07 PM - [INFO] - Replacing <name> with Javanie Campbell..
11/20/2017 12:39:07 PM - [INFO] - Completed replacing parameters.
11/20/2017 12:39:26 PM - [INFO] - Template: F3E892E6-2297-4447-A2C7-51A4AB162EEE was found and attempting to read.
11/20/2017 12:39:26 PM - [INFO] - Completed reading template F3E892E6-2297-4447-A2C7-51A4AB162EEE
11/20/2017 12:39:26 PM - [INFO] - Replacing params for template.
11/20/2017 12:39:26 PM - [INFO] - Replacing <name> with Javanie Campbell..
11/20/2017 12:39:26 PM - [INFO] - Completed replacing parameters.
11/20/2017 12:43:29 PM - [INFO] - Template: F3E892E6-2297-4447-A2C7-51A4AB162EEE was found and attempting to read.
11/20/2017 12:43:29 PM - [INFO] - Completed reading template F3E892E6-2297-4447-A2C7-51A4AB162EEE
11/20/2017 12:43:29 PM - [INFO] - Replacing params for template.
11/20/2017 12:43:29 PM - [INFO] - Replacing <name> with Javanie Campbell..
11/20/2017 12:43:29 PM - [INFO] - Replacing <date> with November 20, 2017..
11/20/2017 12:43:29 PM - [INFO] - Completed replacing parameters.
11/20/2017 12:45:14 PM - [INFO] - Template: F3E892E6-2297-4447-A2C7-51A4AB162EEE was found and attempting to read.
11/20/2017 12:45:14 PM - [INFO] - Completed reading template F3E892E6-2297-4447-A2C7-51A4AB162EEE
11/20/2017 12:45:14 PM - [INFO] - Replacing params for template.
11/20/2017 12:45:14 PM - [INFO] - Replacing <name> with Javanie Campbell..
11/20/2017 12:45:14 PM - [INFO] - Replacing <date> with November 20, 2017..
11/20/2017 12:45:14 PM - [INFO] - Completed replacing parameters.
11/20/2017 12:47:29 PM - [INFO] - Template: F3E892E6-2297-4447-A2C7-51A4AB162EEE was found and attempting to read.
11/20/2017 12:47:29 PM - [INFO] - Completed reading template F3E892E6-2297-4447-A2C7-51A4AB162EEE
11/20/2017 12:47:29 PM - [INFO] - Replacing params for template.
11/20/2017 12:47:29 PM - [INFO] - Replacing <name> with Javanie Campbell..
11/20/2017 12:47:29 PM - [INFO] - Replacing <date> with November 20, 2017..
11/20/2017 12:47:29 PM - [INFO] - Completed replacing parameters.
11/20/2017 12:49:04 PM - [INFO] - Template: F3E892E6-2297-4447-A2C7-51A4AB162EEE was found and attempting to read.
11/20/2017 12:49:05 PM - [INFO] - Completed reading template F3E892E6-2297-4447-A2C7-51A4AB162EEE
11/20/2017 12:49:05 PM - [INFO] - Replacing params for template.
11/20/2017 12:49:05 PM - [INFO] - Replacing <name> with Javanie Campbell..
11/20/2017 12:49:05 PM - [INFO] - Replacing <date> with November 20, 2017..
11/20/2017 12:49:05 PM - [INFO] - Completed replacing parameters.
11/20/2017 12:54:03 PM - [INFO] - Template: F3E892E6-2297-4447-A2C7-51A4AB162EEE was found and attempting to read.
11/20/2017 12:54:03 PM - [INFO] - Completed reading template F3E892E6-2297-4447-A2C7-51A4AB162EEE
11/20/2017 12:54:03 PM - [INFO] - Replacing params for template.
11/20/2017 12:54:03 PM - [INFO] - Replacing <name> with Javanie Campbell..
11/20/2017 12:54:03 PM - [INFO] - Replacing <date> with November 20, 2017..
11/20/2017 12:54:03 PM - [INFO] - Completed replacing parameters.
11/20/2017 12:54:10 PM - [INFO] - Template: F3E892E6-2297-4447-A2C7-51A4AB162EEE was found and attempting to read.
11/20/2017 12:54:10 PM - [INFO] - Completed reading template F3E892E6-2297-4447-A2C7-51A4AB162EEE
11/20/2017 12:54:10 PM - [INFO] - Replacing params for template.
11/20/2017 12:54:10 PM - [INFO] - Replacing <name> with Javanie Campbell..
11/20/2017 12:54:10 PM - [INFO] - Replacing <date> with November 20, 2017..
11/20/2017 12:54:10 PM - [INFO] - Completed replacing parameters.
11/20/2017 12:54:24 PM - [INFO] - Template: F3E892E6-2297-4447-A2C7-51A4AB162EEE was found and attempting to read.
11/20/2017 12:54:24 PM - [INFO] - Completed reading template F3E892E6-2297-4447-A2C7-51A4AB162EEE
11/20/2017 12:54:24 PM - [INFO] - Replacing params for template.
11/20/2017 12:54:24 PM - [INFO] - Replacing <name> with Javanie Campbell..
11/20/2017 12:54:25 PM - [INFO] - Replacing <date> with November 20, 2017..
11/20/2017 12:54:25 PM - [INFO] - Completed replacing parameters.
11/20/2017 12:56:15 PM - [INFO] - Template: F3E892E6-2297-4447-A2C7-51A4AB162EEE was found and attempting to read.
11/20/2017 12:56:15 PM - [INFO] - Completed reading template F3E892E6-2297-4447-A2C7-51A4AB162EEE
11/20/2017 12:56:15 PM - [INFO] - Replacing params for template.
11/20/2017 12:56:15 PM - [INFO] - Replacing <name> with Javanie Campbell..
11/20/2017 12:56:15 PM - [INFO] - Replacing <date> with November 20, 2017..
11/20/2017 12:56:15 PM - [INFO] - Completed replacing parameters.
11/20/2017 1:03:04 PM - [INFO] - Template: F3E892E6-2297-4447-A2C7-51A4AB162EEE was found and attempting to read.
11/20/2017 1:03:04 PM - [INFO] - Completed reading template F3E892E6-2297-4447-A2C7-51A4AB162EEE
11/20/2017 1:03:04 PM - [INFO] - Replacing params for template.
11/20/2017 1:03:04 PM - [INFO] - Replacing <name> with Javanie Campbell..
11/20/2017 1:03:04 PM - [INFO] - Replacing <date> with November 20, 2017..
11/20/2017 1:03:04 PM - [INFO] - Completed replacing parameters.
11/20/2017 1:05:22 PM - [INFO] - Template: F3E892E6-2297-4447-A2C7-51A4AB162EEE was found and attempting to read.
11/20/2017 1:05:22 PM - [INFO] - Completed reading template F3E892E6-2297-4447-A2C7-51A4AB162EEE
11/20/2017 1:05:22 PM - [INFO] - Replacing params for template.
11/20/2017 1:05:22 PM - [INFO] - Replacing <name> with Javanie Campbell..
11/20/2017 1:05:22 PM - [INFO] - Replacing <date> with November 20, 2017..
11/20/2017 1:05:22 PM - [INFO] - Completed replacing parameters.
11/20/2017 1:06:46 PM - [INFO] - Template: F3E892E6-2297-4447-A2C7-51A4AB162EEE was found and attempting to read.
11/20/2017 1:06:46 PM - [INFO] - Completed reading template F3E892E6-2297-4447-A2C7-51A4AB162EEE
11/20/2017 1:06:46 PM - [INFO] - Replacing params for template.
11/20/2017 1:06:46 PM - [INFO] - Replacing <name> with Javanie Campbell..
11/20/2017 1:06:46 PM - [INFO] - Replacing <date> with November 20, 2017..
11/20/2017 1:06:46 PM - [INFO] - Completed replacing parameters.
11/20/2017 1:07:32 PM - [INFO] - Template: F3E892E6-2297-4447-A2C7-51A4AB162EEE was found and attempting to read.
11/20/2017 1:07:32 PM - [INFO] - Completed reading template F3E892E6-2297-4447-A2C7-51A4AB162EEE
11/20/2017 1:07:32 PM - [INFO] - Replacing params for template.
11/20/2017 1:07:32 PM - [INFO] - Replacing <name> with Javanie Campbell..
11/20/2017 1:07:32 PM - [INFO] - Replacing <date> with November 20, 2017..
11/20/2017 1:07:32 PM - [INFO] - Completed replacing parameters.
11/20/2017 1:08:22 PM - [INFO] - Template: F3E892E6-2297-4447-A2C7-51A4AB162EEE was found and attempting to read.
11/20/2017 1:08:22 PM - [INFO] - Completed reading template F3E892E6-2297-4447-A2C7-51A4AB162EEE
11/20/2017 1:08:22 PM - [INFO] - Replacing params for template.
11/20/2017 1:08:22 PM - [INFO] - Replacing <name> with Javanie Campbell..
11/20/2017 1:08:22 PM - [INFO] - Replacing <date> with November 20, 2017..
11/20/2017 1:08:22 PM - [INFO] - Completed replacing parameters.
11/20/2017 1:09:44 PM - [INFO] - Template: F3E892E6-2297-4447-A2C7-51A4AB162EEE was found and attempting to read.
11/20/2017 1:09:44 PM - [INFO] - Completed reading template F3E892E6-2297-4447-A2C7-51A4AB162EEE
11/20/2017 1:09:44 PM - [INFO] - Replacing params for template.
11/20/2017 1:09:44 PM - [INFO] - Replacing <name> with Angella Allen..
11/20/2017 1:09:44 PM - [INFO] - Replacing <date> with November 21, 2017..
11/20/2017 1:09:44 PM - [INFO] - Completed replacing parameters.
11/20/2017 3:44:09 PM - [INFO] - Template: F3E892E6-2297-4447-A2C7-51A4AB162EEE was found and attempting to read.
11/20/2017 3:44:09 PM - [INFO] - Completed reading template F3E892E6-2297-4447-A2C7-51A4AB162EEE
11/20/2017 3:44:09 PM - [INFO] - Replacing params for template.
11/20/2017 3:44:09 PM - [INFO] - Replacing <name> with Angella Allen..
11/20/2017 3:44:09 PM - [INFO] - Replacing <date> with November 21, 2017..
11/20/2017 3:44:09 PM - [INFO] - Completed replacing parameters.
11/20/2017 4:13:23 PM - [INFO] - Template: F3E892E6-2297-4447-A2C7-51A4AB162EEE was found and attempting to read.
11/20/2017 4:13:23 PM - [INFO] - Completed reading template F3E892E6-2297-4447-A2C7-51A4AB162EEE
11/20/2017 4:13:23 PM - [INFO] - Replacing params for template.
11/20/2017 4:13:23 PM - [INFO] - Replacing <name> with Angella Allen..
11/20/2017 4:13:23 PM - [INFO] - Replacing <date> with November 21, 2017..
11/20/2017 4:13:23 PM - [INFO] - Completed replacing parameters.
11/20/2017 4:13:23 PM - [INFO] - Attempting to create PDF for 5252755c-078c-42d9-b479-a9786809fe8a.pdf
11/20/2017 4:13:23 PM - [INFO] - Preparing data..
11/20/2017 4:13:23 PM - [INFO] - Preparing A4 Document....
11/20/2017 4:13:27 PM - [INFO] - Converting HTML to PDF..
11/20/2017 4:13:27 PM - [INFO] - Attempting to Parse HTML..
11/20/2017 4:13:28 PM - [ERROR] - The document has no pages.
11/20/2017 4:16:22 PM - [INFO] - Template: F3E892E6-2297-4447-A2C7-51A4AB162EEE was found and attempting to read.
11/20/2017 4:16:22 PM - [INFO] - Completed reading template F3E892E6-2297-4447-A2C7-51A4AB162EEE
11/20/2017 4:16:22 PM - [INFO] - Replacing params for template.
11/20/2017 4:16:22 PM - [INFO] - Replacing <name> with Angella Allen..
11/20/2017 4:16:22 PM - [INFO] - Replacing <date> with November 21, 2017..
11/20/2017 4:16:22 PM - [INFO] - Completed replacing parameters.
11/20/2017 4:16:22 PM - [INFO] - Attempting to create PDF for 2f033d98-6786-4a76-9b6d-c5c0ce3dfc2a.pdf
11/20/2017 4:16:22 PM - [INFO] - Preparing data..
11/20/2017 4:16:22 PM - [INFO] - Preparing A4 Document....
11/20/2017 4:16:23 PM - [INFO] - Converting HTML to PDF..
11/20/2017 4:16:23 PM - [INFO] - Attempting to Parse HTML..
11/20/2017 4:16:23 PM - [ERROR] - The document has no pages.
11/20/2017 4:17:03 PM - [INFO] - Template: F3E892E6-2297-4447-A2C7-51A4AB162EEE was found and attempting to read.
11/20/2017 4:17:04 PM - [INFO] - Completed reading template F3E892E6-2297-4447-A2C7-51A4AB162EEE
11/20/2017 4:17:04 PM - [INFO] - Replacing params for template.
11/20/2017 4:17:04 PM - [INFO] - Replacing <name> with Angella Allen..
11/20/2017 4:17:04 PM - [INFO] - Replacing <date> with November 21, 2017..
11/20/2017 4:17:04 PM - [INFO] - Completed replacing parameters.
11/20/2017 4:17:04 PM - [INFO] - Attempting to create PDF for 330fd08a-d7f2-42cd-84ad-4c1547b0d7b1.pdf
11/20/2017 4:17:04 PM - [INFO] - Preparing data..
11/20/2017 4:17:04 PM - [INFO] - Preparing A4 Document....
11/20/2017 4:17:04 PM - [INFO] - Converting HTML to PDF..
11/20/2017 4:17:04 PM - [INFO] - Attempting to Parse HTML..
11/20/2017 4:17:04 PM - [ERROR] - The document has no pages.
11/20/2017 4:27:30 PM - [INFO] - Template: F3E892E6-2297-4447-A2C7-51A4AB162EEE was found and attempting to read.
11/20/2017 4:27:30 PM - [INFO] - Completed reading template F3E892E6-2297-4447-A2C7-51A4AB162EEE
11/20/2017 4:27:30 PM - [INFO] - Replacing params for template.
11/20/2017 4:27:30 PM - [INFO] - Replacing <name> with Angella Allen..
11/20/2017 4:27:30 PM - [INFO] - Replacing <date> with November 21, 2017..
11/20/2017 4:27:30 PM - [INFO] - Completed replacing parameters.
11/20/2017 4:27:35 PM - [INFO] - Attempting to create PDF for 61bc93f5-17d7-4087-9b25-4be3cff7cdf4.pdf
11/20/2017 4:27:39 PM - [INFO] - Preparing data..
11/20/2017 4:27:42 PM - [INFO] - Preparing A4 Document....
11/20/2017 4:27:57 PM - [INFO] - Converting HTML to PDF..
11/20/2017 4:28:03 PM - [INFO] - Attempting to Parse HTML..
11/20/2017 4:28:20 PM - [ERROR] - The document has no pages.
11/20/2017 4:28:26 PM - [INFO] - Template: F3E892E6-2297-4447-A2C7-51A4AB162EEE was found and attempting to read.
11/20/2017 4:28:26 PM - [INFO] - Completed reading template F3E892E6-2297-4447-A2C7-51A4AB162EEE
11/20/2017 4:28:26 PM - [INFO] - Replacing params for template.
11/20/2017 4:28:26 PM - [INFO] - Replacing <name> with Angella Allen..
11/20/2017 4:28:26 PM - [INFO] - Replacing <date> with November 21, 2017..
11/20/2017 4:28:26 PM - [INFO] - Completed replacing parameters.
11/20/2017 4:28:31 PM - [INFO] - Attempting to create PDF for 3a20f84b-9858-4b82-87b0-7307b0d6cfb1.pdf
11/20/2017 4:28:33 PM - [INFO] - Preparing data..
11/20/2017 4:28:34 PM - [INFO] - Preparing A4 Document....
11/20/2017 4:28:48 PM - [INFO] - Converting HTML to PDF..
11/20/2017 4:29:32 PM - [INFO] - Attempting to Parse HTML..
11/20/2017 4:33:54 PM - [INFO] - Template: F3E892E6-2297-4447-A2C7-51A4AB162EEE was found and attempting to read.
11/20/2017 4:33:54 PM - [INFO] - Completed reading template F3E892E6-2297-4447-A2C7-51A4AB162EEE
11/20/2017 4:33:54 PM - [INFO] - Replacing params for template.
11/20/2017 4:33:54 PM - [INFO] - Replacing <name> with Angella Allen..
11/20/2017 4:33:54 PM - [INFO] - Replacing <date> with November 21, 2017..
11/20/2017 4:33:54 PM - [INFO] - Completed replacing parameters.
11/20/2017 4:34:06 PM - [INFO] - Attempting to create PDF for 7da15737-b7de-4378-b5cb-619461c4dfcf.pdf
11/20/2017 4:34:08 PM - [INFO] - Preparing data..
11/20/2017 4:34:10 PM - [INFO] - Preparing A4 Document....
11/20/2017 4:34:21 PM - [INFO] - Converting HTML to PDF..
11/20/2017 4:34:25 PM - [INFO] - Attempting to Parse HTML..
11/20/2017 4:36:03 PM - [INFO] - Template: F3E892E6-2297-4447-A2C7-51A4AB162EEE was found and attempting to read.
11/20/2017 4:36:03 PM - [INFO] - Completed reading template F3E892E6-2297-4447-A2C7-51A4AB162EEE
11/20/2017 4:36:03 PM - [INFO] - Replacing params for template.
11/20/2017 4:36:03 PM - [INFO] - Replacing <name> with Angella Allen..
11/20/2017 4:36:03 PM - [INFO] - Replacing <date> with November 21, 2017..
11/20/2017 4:36:03 PM - [INFO] - Completed replacing parameters.
11/20/2017 4:36:08 PM - [INFO] - Attempting to create PDF for bd828ea0-f7e5-4a1d-8fb6-f0d10a608384.pdf
11/20/2017 4:36:11 PM - [INFO] - Preparing data..
11/20/2017 4:36:14 PM - [INFO] - Preparing A4 Document....
11/20/2017 4:36:28 PM - [INFO] - Converting HTML to PDF..
11/20/2017 4:36:32 PM - [INFO] - Attempting to Parse HTML..
11/20/2017 4:41:02 PM - [INFO] - Template: F3E892E6-2297-4447-A2C7-51A4AB162EEE was found and attempting to read.
11/20/2017 4:41:02 PM - [INFO] - Completed reading template F3E892E6-2297-4447-A2C7-51A4AB162EEE
11/20/2017 4:41:02 PM - [INFO] - Replacing params for template.
11/20/2017 4:41:02 PM - [INFO] - Replacing <name> with Angella Allen..
11/20/2017 4:41:02 PM - [INFO] - Replacing <date> with November 21, 2017..
11/20/2017 4:41:02 PM - [INFO] - Completed replacing parameters.
11/20/2017 4:41:05 PM - [INFO] - Attempting to create PDF for 3a7898f5-e8e0-4f88-8779-e627efab7cd6.pdf
11/20/2017 4:41:05 PM - [INFO] - Preparing data..
11/20/2017 4:41:05 PM - [INFO] - Preparing A4 Document....
11/20/2017 4:41:05 PM - [INFO] - Converting HTML to PDF..
11/20/2017 4:41:05 PM - [INFO] - Attempting to Parse HTML..
11/20/2017 4:41:05 PM - [ERROR] - The document has no pages.
11/20/2017 4:41:53 PM - [INFO] - Template: F3E892E6-2297-4447-A2C7-51A4AB162EEE was found and attempting to read.
11/20/2017 4:41:53 PM - [INFO] - Completed reading template F3E892E6-2297-4447-A2C7-51A4AB162EEE
11/20/2017 4:41:53 PM - [INFO] - Replacing params for template.
11/20/2017 4:41:53 PM - [INFO] - Replacing <name> with Angella Allen..
11/20/2017 4:41:53 PM - [INFO] - Replacing <date> with November 21, 2017..
11/20/2017 4:41:53 PM - [INFO] - Completed replacing parameters.
11/20/2017 4:41:57 PM - [INFO] - Attempting to create PDF for b595bc28-d72b-461d-a809-cb4867db9cca.pdf
11/20/2017 4:41:59 PM - [INFO] - Preparing data..
11/20/2017 4:42:01 PM - [INFO] - Preparing A4 Document....
11/20/2017 4:42:12 PM - [INFO] - Converting HTML to PDF..
11/20/2017 4:42:16 PM - [INFO] - Attempting to Parse HTML..
11/20/2017 4:45:26 PM - [INFO] - Template: F3E892E6-2297-4447-A2C7-51A4AB162EEE was found and attempting to read.
11/20/2017 4:45:26 PM - [INFO] - Completed reading template F3E892E6-2297-4447-A2C7-51A4AB162EEE
11/20/2017 4:45:26 PM - [INFO] - Replacing params for template.
11/20/2017 4:45:26 PM - [INFO] - Replacing <name> with Angella Allen..
11/20/2017 4:45:26 PM - [INFO] - Replacing <date> with November 21, 2017..
11/20/2017 4:45:26 PM - [INFO] - Completed replacing parameters.
11/20/2017 4:45:30 PM - [INFO] - Attempting to create PDF for 5c0bd71c-974e-42e0-a721-a2e570b00e6f.pdf
11/20/2017 4:45:32 PM - [INFO] - Preparing data..
11/20/2017 4:45:35 PM - [INFO] - Preparing A4 Document....
11/20/2017 4:47:17 PM - [INFO] - Template: F3E892E6-2297-4447-A2C7-51A4AB162EEE was found and attempting to read.
11/20/2017 4:47:17 PM - [INFO] - Completed reading template F3E892E6-2297-4447-A2C7-51A4AB162EEE
11/20/2017 4:47:17 PM - [INFO] - Replacing params for template.
11/20/2017 4:47:17 PM - [INFO] - Replacing <name> with Angella Allen..
11/20/2017 4:47:17 PM - [INFO] - Replacing <date> with November 21, 2017..
11/20/2017 4:47:17 PM - [INFO] - Completed replacing parameters.
11/20/2017 4:47:38 PM - [INFO] - Attempting to create PDF for b52eccf9-49c3-4cde-a552-8c4ab30bfa3c.pdf
11/20/2017 4:47:41 PM - [INFO] - Preparing data..
11/20/2017 4:47:47 PM - [INFO] - Preparing A4 Document....
11/20/2017 4:49:11 PM - [INFO] - Converting HTML to PDF..
11/20/2017 4:49:23 PM - [INFO] - Attempting to Parse HTML..
11/20/2017 4:57:19 PM - [INFO] - Template: F3E892E6-2297-4447-A2C7-51A4AB162EEE was found and attempting to read.
11/20/2017 4:57:19 PM - [INFO] - Completed reading template F3E892E6-2297-4447-A2C7-51A4AB162EEE
11/20/2017 4:57:19 PM - [INFO] - Replacing params for template.
11/20/2017 4:57:19 PM - [INFO] - Replacing <name> with Angella Allen..
11/20/2017 4:57:19 PM - [INFO] - Replacing <date> with November 21, 2017..
11/20/2017 4:57:19 PM - [INFO] - Completed replacing parameters.
11/20/2017 4:57:26 PM - [INFO] - Attempting to create PDF for cf75b5f2-a355-4327-92af-b77fe69d30dc.pdf
11/20/2017 4:57:26 PM - [INFO] - Preparing data..
11/20/2017 4:57:26 PM - [INFO] - Preparing A4 Document....
11/20/2017 4:57:32 PM - [INFO] - Converting HTML to PDF..
11/20/2017 4:57:32 PM - [INFO] - Attempting to Parse HTML..
11/20/2017 4:57:32 PM - [INFO] - Completed Parsing HTML..
11/20/2017 4:57:32 PM - [INFO] - Converted HTML to PDF for cf75b5f2-a355-4327-92af-b77fe69d30dc.pdf
11/20/2017 5:00:57 PM - [INFO] - Template: F3E892E6-2297-4447-A2C7-51A4AB162EEE was found and attempting to read.
11/20/2017 5:00:58 PM - [INFO] - Completed reading template F3E892E6-2297-4447-A2C7-51A4AB162EEE
11/20/2017 5:00:58 PM - [INFO] - Replacing params for template.
11/20/2017 5:00:58 PM - [INFO] - Replacing <name> with Angella Allen..
11/20/2017 5:00:58 PM - [INFO] - Replacing <date> with November 21, 2017..
11/20/2017 5:00:58 PM - [INFO] - Completed replacing parameters.
11/20/2017 5:01:00 PM - [INFO] - Attempting to create PDF for c3666e16-8350-409a-8a55-9b824df26bf2.pdf
11/20/2017 5:01:00 PM - [INFO] - Preparing data..
11/20/2017 5:01:00 PM - [INFO] - Preparing A4 Document....
11/20/2017 5:01:00 PM - [INFO] - Converting HTML to PDF..
11/20/2017 5:01:00 PM - [INFO] - Attempting to Parse HTML..
11/20/2017 5:01:01 PM - [ERROR] - Cannot access a closed file.
11/20/2017 5:02:45 PM - [INFO] - Template: F3E892E6-2297-4447-A2C7-51A4AB162EEE was found and attempting to read.
11/20/2017 5:02:45 PM - [INFO] - Completed reading template F3E892E6-2297-4447-A2C7-51A4AB162EEE
11/20/2017 5:02:45 PM - [INFO] - Replacing params for template.
11/20/2017 5:02:45 PM - [INFO] - Replacing <name> with Angella Allen..
11/20/2017 5:02:45 PM - [INFO] - Replacing <date> with November 21, 2017..
11/20/2017 5:02:45 PM - [INFO] - Completed replacing parameters.
11/20/2017 5:02:47 PM - [INFO] - Attempting to create PDF for 3eb2dc0b-9934-48c3-9c64-b2ccbe2e8c0b.pdf
11/20/2017 5:02:47 PM - [INFO] - Preparing data..
11/20/2017 5:02:47 PM - [INFO] - Preparing A4 Document....
11/20/2017 5:02:48 PM - [INFO] - Converting HTML to PDF..
11/20/2017 5:02:48 PM - [INFO] - Attempting to Parse HTML..
11/20/2017 5:02:48 PM - [INFO] - Completed Parsing HTML..
11/20/2017 5:02:48 PM - [INFO] - Converted HTML to PDF for 3eb2dc0b-9934-48c3-9c64-b2ccbe2e8c0b.pdf
11/20/2017 5:04:10 PM - [INFO] - Template: F3E892E6-2297-4447-A2C7-51A4AB162EEE was found and attempting to read.
11/20/2017 5:04:10 PM - [INFO] - Completed reading template F3E892E6-2297-4447-A2C7-51A4AB162EEE
11/20/2017 5:04:10 PM - [INFO] - Replacing params for template.
11/20/2017 5:04:10 PM - [INFO] - Replacing <name> with Angella Allen..
11/20/2017 5:04:10 PM - [INFO] - Replacing <date> with November 21, 2017..
11/20/2017 5:04:10 PM - [INFO] - Completed replacing parameters.
11/20/2017 5:04:12 PM - [INFO] - Attempting to create PDF for 9d98ace8-9dd1-4d01-becd-5e51dee3ebfb.pdf
11/20/2017 5:04:12 PM - [INFO] - Preparing data..
11/20/2017 5:04:12 PM - [INFO] - Preparing A4 Document....
11/20/2017 5:04:12 PM - [INFO] - Converting HTML to PDF..
11/20/2017 5:04:12 PM - [INFO] - Attempting to Parse HTML..
11/20/2017 5:04:12 PM - [INFO] - Completed Parsing HTML..
11/20/2017 5:04:12 PM - [INFO] - Converted HTML to PDF for 9d98ace8-9dd1-4d01-becd-5e51dee3ebfb.pdf
11/20/2017 5:04:57 PM - [INFO] - Template: F3E892E6-2297-4447-A2C7-51A4AB162EEE was found and attempting to read.
11/20/2017 5:04:57 PM - [INFO] - Completed reading template F3E892E6-2297-4447-A2C7-51A4AB162EEE
11/20/2017 5:04:57 PM - [INFO] - Replacing params for template.
11/20/2017 5:04:57 PM - [INFO] - Replacing <name> with Angella Allen..
11/20/2017 5:04:57 PM - [INFO] - Replacing <date> with November 21, 2017..
11/20/2017 5:04:57 PM - [INFO] - Completed replacing parameters.
11/20/2017 5:04:59 PM - [INFO] - Attempting to create PDF for 8712c7fd-58f5-4e15-9af6-7f383f2af823.pdf
11/20/2017 5:04:59 PM - [INFO] - Preparing data..
11/20/2017 5:04:59 PM - [INFO] - Preparing A4 Document....
11/20/2017 5:05:00 PM - [INFO] - Converting HTML to PDF..
11/20/2017 5:05:00 PM - [INFO] - Attempting to Parse HTML..
11/20/2017 5:05:00 PM - [INFO] - Completed Parsing HTML..
11/20/2017 5:05:00 PM - [INFO] - Converted HTML to PDF for 8712c7fd-58f5-4e15-9af6-7f383f2af823.pdf
